ltd_analysis
…
The relationship is strongly positive at March (lag3)

# A dable: 127 x 7 [1M]
# Key:     .model [1]
# :        ltd_total = trend + season_year + remainder
   .model    Month  ltd_total      trend season_year  remainder season_adjust
   <chr>     <mth>      <dbl>      <dbl>       <dbl>      <dbl>         <dbl>
 1 stl    2013 Jul 319490654. 315424148.    5620237.  -1553731.    313870417.
 2 stl    2013 Aug 304910653. 321183186.   -3494771. -12777762.    308405424.
 3 stl    2013 Sep 301864862. 326942225.  -29515276.   4437913.    331380138.
 4 stl    2013 Oct 367969177. 332701263.    6562231.  28705683.    361406946.
 5 stl    2013 Nov 316302613. 338399511.  -12063899. -10032999.    328366512.
 6 stl    2013 Dec 405630136. 344097759.   90835354. -29302977.    314794782.
 7 stl    2014 Jan 342061060. 349796007.  -30450108.  22715160.    372511168.
 8 stl    2014 Feb 373577776. 355343048.   15223854.   3010873.    358353921.
 9 stl    2014 Mar 320151633. 360890089.   -9928319. -30810137.    330079953.
10 stl    2014 Apr 299004858. 366437130.  -80575137.  13142865.    379579995.
# ℹ 117 more rows
…
