ltd_analysis
…
The relationship is strongly positive at March (lag3)

# A dable: 132 x 7 [1M]
# Key:     .model [1]
# :        ltd_total = trend + season_year + remainder
   .model    Month  ltd_total      trend season_year  remainder season_adjust
   <chr>     <mth>      <dbl>      <dbl>       <dbl>      <dbl>         <dbl>
 1 stl    2013 Jul 319490654. 316381257.    4756792.  -1647395.    314733862.
 2 stl    2013 Aug 304910653. 322020988.   -4291701. -12818634.    309202354.
 3 stl    2013 Sep 301864862. 327660719.  -30245689.   4449832.    332110551.
 4 stl    2013 Oct 367969177. 333300450.    5898276.  28770451.    362070901.
 5 stl    2013 Nov 316302613. 338894798.  -12657492.  -9934693.    328960105.
 6 stl    2013 Dec 405630136. 344489146.   90312058. -29171068.    315318078.
 7 stl    2014 Jan 342061060. 350083493.  -30903106.  22880672.    372964165.
 8 stl    2014 Feb 373577776. 355552941.   11472544.   6552291.    362105232.
 9 stl    2014 Mar 320151633. 361022388.   -7603218. -33267537.    327754851.
10 stl    2014 Apr 299004858. 366491835.  -78829735.  11342758.    377834594.
# ℹ 122 more rows
…
